<svg width="20" height="20" viewBox="0 0 20 20" fill="none" xmlns="http://www.w3.org/2000/svg">
<path opacity="0.3" d="M4.16669 6.66667H15.8334V5H4.16669V6.66667Z" fill="#34407D"/>
<path d="M5.83333 9.16663H7.5V10.8333H5.83333V9.16663ZM15.8333 3.33329H15V1.66663H13.3333V3.33329H6.66667V1.66663H5V3.33329H4.16667C3.24167 3.33329 2.50833 4.08329 2.50833 4.99996L2.5 16.6666C2.5 17.1087 2.67559 17.5326 2.98816 17.8451C3.30072 18.1577 3.72464 18.3333 4.16667 18.3333H15.8333C16.75 18.3333 17.5 17.5833 17.5 16.6666V4.99996C17.5 4.08329 16.75 3.33329 15.8333 3.33329ZM15.8333 16.6666H4.16667V8.33329H15.8333V16.6666ZM15.8333 6.66663H4.16667V4.99996H15.8333V6.66663ZM12.5 9.16663H14.1667V10.8333H12.5V9.16663ZM9.16667 9.16663H10.8333V10.8333H9.16667V9.16663Z" fill="#34407D"/>
</svg>
