<svg width="26" height="26" viewBox="0 0 26 26" fill="none" xmlns="http://www.w3.org/2000/svg">
<g opacity="0.5">
<path d="M23.057 12.3027C23.057 18.0369 18.4382 22.6801 12.7473 22.6801C7.05627 22.6801 2.4375 18.0369 2.4375 12.3027C2.4375 6.56846 7.05627 1.92529 12.7473 1.92529C18.4382 1.92529 23.057 6.56846 23.057 12.3027Z" fill="white" stroke="#34407D"/>
<path d="M6.26259 5.77589L19.2344 18.8288M6.46272 18.8288L17.9931 5.77591" stroke="#FE0000" stroke-width="2"/>
</g>
</svg>
